Access statistics.gov.scot Without SPARQL • opendatascot
…
ods_dataset() returns data from a dataset in statistics.gov.scot

ods_structure() finds the full sets of categories and values for a particular dataset (helpful for creating new filters for ods_dataset!)

ods_print_query() produces the SPARQL query used by ods_dataset().

ods_find_higher_geography() and ods_find_higher_geography() will find all geographical areas with contain, or are contained by a specified geography.

Examples

Get a dataframe of all datasets on statistics.gov.scot, their uri, and publisher

opendatascot::ods_all_datasets()

#> # A tibble: 297 × 3
#>    URI                                                           Name  Publisher
#>    <chr>                                                         <chr> <chr>    
#>  1 6-in-1-immunisation                                           6-in… Public H…
#>  2 adult-disability-payment-applications-and-payments            Adul… Scottish…
#>  3 adults-16-64-years-with-low-or-no-qualifications              Adul… Scottish…
#>  4 affordable-housing-supply-programme                           Affo… Scottish…
#>  5 age-at-first-birth                                            Age … Public H…
#>  6 alcohol-related-discharge                                     Alco… Public H…
#>  7 alcohol-related-hospital-statistics                           Alco… Public H…
#>  8 alcohol-use-ever-among-young-people-salsus                    Alco… Scottish…
#>  9 annual-business-survey                                        Annu… Scottish…
#> 10 information-and-communication-technologies-ict-including-rel… Annu… Scottish…
#> # ℹ 287 more rows
…
After viewing the structure, we decide we only want the data for “all-applications” and for the periods “2015/2016” and “2016/2017”, so we add these to the filter.

opendatascot::ods_dataset("homelessness-applications",
                          applicationType = "all-applications",
                          refPeriod = c("2015/2016", "2016/2017"))

#> # A tibble: 66 × 5
#>    refArea   refPeriod measureType applicationType  value
#>    <chr>     <chr>     <chr>       <chr>            <dbl>
#>  1 S12000008 2015/2016 count       all-applications   505
#>  2 S12000026 2015/2016 count       all-applications   623
#>  3 S92000003 2015/2016 count       all-applications 34969
#>  4 S12000013 2015/2016 count       all-applications   157
#>  5 S12000048 2015/2016 count       all-applications   898
#>  6 S12000042 2015/2016 count       all-applications  1474
#>  7 S12000006 2015/2016 count       all-applications   668
#>  8 S12000029 2015/2016 count       all-applications  1894
#>  9 S12000014 2015/2016 count       all-applications  1064
#> 10 S12000049 2015/2016 count       all-applications  5977
#> # ℹ 56 more rows

If you’re only interested in a particular geographical level, you can use the “geography” argument to return only specific levels.

opendatascot::ods_dataset("homelessness-applications",
                          geography = "la")

#> # A tibble: 1,024 × 5
#>    refArea   refPeriod measureType applicationType                         value
#>    <chr>     <chr>     <chr>       <chr>                                   <dbl>
#>  1 S12000033 2010/2011 count       all-applications                         3406
#>  2 S12000014 2010/2011 count       assessed-as-homeless-or-threatened-wit…  1780
#>  3 S12000021 2010/2011 count       assessed-as-homeless-or-threatened-wit…   672
#>  4 S12000027 2010/2011 count       all-applications                          270
#>  5 S12000029 2010/2011 count       assessed-as-homeless-or-threatened-wit…  2323
#>  6 S12000038 2010/2011 count       all-applications                         1253
#>  7 S12000010 2010/2011 count       all-applications                         1192
#>  8 S12000040 2010/2011 count       all-applications                         1932
#>  9 S12000019 2010/2011 count       all-applications                          660
#> 10 S12000020 2010/2011 count       all-applications                          662
#> # ℹ 1,014 more rows
…
